\BOOKMARK [0][-]{chapter.1}{\376\377\0001\000\040\000H\000i\000e\000r\000a\000r\000c\000h\000i\000c\000a\000l\000\040\000I\000n\000d\000e\000x}{}% 1
\BOOKMARK [1][-]{section.1.1}{\376\377\0001\000.\0001\000\040\000C\000l\000a\000s\000s\000\040\000H\000i\000e\000r\000a\000r\000c\000h\000y}{chapter.1}% 2
\BOOKMARK [0][-]{chapter.2}{\376\377\0002\000\040\000C\000l\000a\000s\000s\000\040\000I\000n\000d\000e\000x}{}% 3
\BOOKMARK [1][-]{section.2.1}{\376\377\0002\000.\0001\000\040\000C\000l\000a\000s\000s\000\040\000L\000i\000s\000t}{chapter.2}% 4
\BOOKMARK [0][-]{chapter.3}{\376\377\0003\000\040\000C\000l\000a\000s\000s\000\040\000D\000o\000c\000u\000m\000e\000n\000t\000a\000t\000i\000o\000n}{}% 5
\BOOKMARK [1][-]{section.3.1}{\376\377\0003\000.\0001\000\040\000D\000e\000c\000o\000d\000e\000W\000o\000r\000k\000e\000r\000\040\000C\000l\000a\000s\000s\000\040\000R\000e\000f\000e\000r\000e\000n\000c\000e}{chapter.3}% 6
\BOOKMARK [2][-]{subsection.3.1.1}{\376\377\0003\000.\0001\000.\0001\000\040\000M\000e\000m\000b\000e\000r\000\040\000F\000u\000n\000c\000t\000i\000o\000n\000\040\000D\000o\000c\000u\000m\000e\000n\000t\000a\000t\000i\000o\000n}{section.3.1}% 7
\BOOKMARK [3][-]{subsubsection.3.1.1.1}{\376\377\0003\000.\0001\000.\0001\000.\0001\000\040\000d\000e\000c\000o\000d\000e}{subsection.3.1.1}% 8
\BOOKMARK [3][-]{subsubsection.3.1.1.2}{\376\377\0003\000.\0001\000.\0001\000.\0002\000\040\000o\000p\000e\000n\000S\000t\000r\000e\000a\000m\000\050\000Q\000S\000t\000r\000i\000n\000g\000\040\000s\000t\000r\000e\000a\000m\000\051}{subsection.3.1.1}% 9
\BOOKMARK [3][-]{subsubsection.3.1.1.3}{\376\377\0003\000.\0001\000.\0001\000.\0003\000\040\000s\000e\000t\000P\000o\000s\000F\000r\000a\000m\000e\000s\000\050\000d\000o\000u\000b\000l\000e\000\040\000f\000r\000a\000m\000e\000\051}{subsection.3.1.1}% 10
\BOOKMARK [1][-]{section.3.2}{\376\377\0003\000.\0002\000\040\000M\000a\000i\000n\000W\000i\000n\000d\000o\000w\000\040\000C\000l\000a\000s\000s\000\040\000R\000e\000f\000e\000r\000e\000n\000c\000e}{chapter.3}% 11
\BOOKMARK [1][-]{section.3.3}{\376\377\0003\000.\0003\000\040\000O\000v\000e\000r\000l\000a\000y\000\040\000C\000l\000a\000s\000s\000\040\000R\000e\000f\000e\000r\000e\000n\000c\000e}{chapter.3}% 12
\BOOKMARK [2][-]{subsection.3.3.1}{\376\377\0003\000.\0003\000.\0001\000\040\000D\000e\000t\000a\000i\000l\000e\000d\000\040\000D\000e\000s\000c\000r\000i\000p\000t\000i\000o\000n}{section.3.3}% 13
\BOOKMARK [2][-]{subsection.3.3.2}{\376\377\0003\000.\0003\000.\0002\000\040\000M\000e\000m\000b\000e\000r\000\040\000E\000n\000u\000m\000e\000r\000a\000t\000i\000o\000n\000\040\000D\000o\000c\000u\000m\000e\000n\000t\000a\000t\000i\000o\000n}{section.3.3}% 14
\BOOKMARK [3][-]{subsubsection.3.3.2.1}{\376\377\0003\000.\0003\000.\0002\000.\0001\000\040\000P\000a\000r\000s\000e\000r\000E\000r\000r\000o\000r}{subsection.3.3.2}% 15
\BOOKMARK [2][-]{subsection.3.3.3}{\376\377\0003\000.\0003\000.\0003\000\040\000M\000e\000m\000b\000e\000r\000\040\000F\000u\000n\000c\000t\000i\000o\000n\000\040\000D\000o\000c\000u\000m\000e\000n\000t\000a\000t\000i\000o\000n}{section.3.3}% 16
\BOOKMARK [3][-]{subsubsection.3.3.3.1}{\376\377\0003\000.\0003\000.\0003\000.\0001\000\040\000f\000r\000a\000m\000e\000\050\000q\000u\000i\000n\000t\0003\0002\000\040\000t\000i\000m\000e\000s\000t\000a\000m\000p\000\051}{subsection.3.3.3}% 17
\BOOKMARK [3][-]{subsubsection.3.3.3.2}{\376\377\0003\000.\0003\000.\0003\000.\0002\000\040\000n\000e\000x\000t\000O\000v\000e\000r\000l\000a\000y\000\050\000q\000u\000i\000n\000t\0003\0002\000\040\000t\000i\000m\000e\000S\000t\000a\000m\000p\000\051}{subsection.3.3.3}% 18
\BOOKMARK [3][-]{subsubsection.3.3.3.3}{\376\377\0003\000.\0003\000.\0003\000.\0003\000\040\000n\000e\000x\000t\000O\000v\000e\000r\000l\000a\000y\000\050\000\051}{subsection.3.3.3}% 19
\BOOKMARK [3][-]{subsubsection.3.3.3.4}{\376\377\0003\000.\0003\000.\0003\000.\0004\000\040\000o\000v\000e\000r\000l\000a\000y\000s\000T\000o\000F\000r\000a\000m\000e\000\050\000i\000n\000t\000\040\000f\000r\000a\000m\000e\000\051}{subsection.3.3.3}% 20
\BOOKMARK [3][-]{subsubsection.3.3.3.5}{\376\377\0003\000.\0003\000.\0003\000.\0005\000\040\000p\000a\000r\000s\000e\000F\000r\000a\000m\000e\000s\000\050\000Q\000S\000t\000r\000i\000n\000g\000\040\000f\000i\000l\000e\000N\000a\000m\000e\000\051}{subsection.3.3.3}% 21
\BOOKMARK [3][-]{subsubsection.3.3.3.6}{\376\377\0003\000.\0003\000.\0003\000.\0006\000\040\000p\000a\000r\000s\000e\000O\000v\000e\000r\000l\000a\000y\000s\000\050\000Q\000S\000t\000r\000i\000n\000g\000\040\000f\000i\000l\000e\000N\000a\000m\000e\000\051}{subsection.3.3.3}% 22
\BOOKMARK [3][-]{subsubsection.3.3.3.7}{\376\377\0003\000.\0003\000.\0003\000.\0007\000\040\000p\000r\000e\000v\000i\000o\000u\000s\000O\000v\000e\000r\000l\000a\000y\000\050\000q\000u\000i\000n\000t\0003\0002\000\040\000t\000i\000m\000e\000S\000t\000a\000m\000p\000\051}{subsection.3.3.3}% 23
\BOOKMARK [3][-]{subsubsection.3.3.3.8}{\376\377\0003\000.\0003\000.\0003\000.\0008\000\040\000p\000r\000e\000v\000i\000o\000u\000s\000O\000v\000e\000r\000l\000a\000y\000\050\000\051}{subsection.3.3.3}% 24
\BOOKMARK [3][-]{subsubsection.3.3.3.9}{\376\377\0003\000.\0003\000.\0003\000.\0009\000\040\000t\000i\000m\000e\000S\000t\000a\000m\000p\000\050\000i\000n\000t\000\040\000f\000r\000a\000m\000e\000\051}{subsection.3.3.3}% 25
\BOOKMARK [1][-]{section.3.4}{\376\377\0003\000.\0004\000\040\000V\000i\000d\000e\000o\000H\000a\000n\000d\000l\000e\000r\000\040\000C\000l\000a\000s\000s\000\040\000R\000e\000f\000e\000r\000e\000n\000c\000e}{chapter.3}% 26
\BOOKMARK [2][-]{subsection.3.4.1}{\376\377\0003\000.\0004\000.\0001\000\040\000D\000e\000t\000a\000i\000l\000e\000d\000\040\000D\000e\000s\000c\000r\000i\000p\000t\000i\000o\000n}{section.3.4}% 27
\BOOKMARK [2][-]{subsection.3.4.2}{\376\377\0003\000.\0004\000.\0002\000\040\000M\000e\000m\000b\000e\000r\000\040\000E\000n\000u\000m\000e\000r\000a\000t\000i\000o\000n\000\040\000D\000o\000c\000u\000m\000e\000n\000t\000a\000t\000i\000o\000n}{section.3.4}% 28
\BOOKMARK [3][-]{subsubsection.3.4.2.1}{\376\377\0003\000.\0004\000.\0002\000.\0001\000\040\000P\000l\000a\000y\000S\000t\000a\000t\000e}{subsection.3.4.2}% 29
\BOOKMARK [2][-]{subsection.3.4.3}{\376\377\0003\000.\0004\000.\0003\000\040\000M\000e\000m\000b\000e\000r\000\040\000F\000u\000n\000c\000t\000i\000o\000n\000\040\000D\000o\000c\000u\000m\000e\000n\000t\000a\000t\000i\000o\000n}{section.3.4}% 30
\BOOKMARK [3][-]{subsubsection.3.4.3.1}{\376\377\0003\000.\0004\000.\0003\000.\0001\000\040\000c\000o\000d\000e\000c\000\050\000\051\000\040\000c\000o\000n\000s\000t\000\040}{subsection.3.4.3}% 31
\BOOKMARK [3][-]{subsubsection.3.4.3.2}{\376\377\0003\000.\0004\000.\0003\000.\0002\000\040\000d\000e\000c\000o\000d\000e}{subsection.3.4.3}% 32
\BOOKMARK [3][-]{subsubsection.3.4.3.3}{\376\377\0003\000.\0004\000.\0003\000.\0003\000\040\000f\000r\000a\000m\000e\000C\000o\000u\000n\000t\000\050\000\051\000\040\000c\000o\000n\000s\000t\000\040}{subsection.3.4.3}% 33
\BOOKMARK [3][-]{subsubsection.3.4.3.4}{\376\377\0003\000.\0004\000.\0003\000.\0004\000\040\000f\000r\000a\000m\000e\000r\000a\000t\000e\000\050\000\051\000\040\000c\000o\000n\000s\000t\000\040}{subsection.3.4.3}% 34
\BOOKMARK [3][-]{subsubsection.3.4.3.5}{\376\377\0003\000.\0004\000.\0003\000.\0005\000\040\000i\000m\000a\000g\000e\000R\000e\000f\000r\000e\000s\000h}{subsection.3.4.3}% 35
\BOOKMARK [3][-]{subsubsection.3.4.3.6}{\376\377\0003\000.\0004\000.\0003\000.\0006\000\040\000o\000v\000e\000r\000l\000a\000y\000R\000e\000f\000r\000e\000s\000h}{subsection.3.4.3}% 36
\BOOKMARK [3][-]{subsubsection.3.4.3.7}{\376\377\0003\000.\0004\000.\0003\000.\0007\000\040\000p\000l\000a\000y\000S\000t\000a\000t\000e\000\050\000\051\000\040\000c\000o\000n\000s\000t\000\040}{subsection.3.4.3}% 37
\BOOKMARK [3][-]{subsubsection.3.4.3.8}{\376\377\0003\000.\0004\000.\0003\000.\0008\000\040\000p\000o\000s\000F\000r\000a\000m\000e\000s\000\050\000\051\000\040\000c\000o\000n\000s\000t\000\040}{subsection.3.4.3}% 38
\BOOKMARK [3][-]{subsubsection.3.4.3.9}{\376\377\0003\000.\0004\000.\0003\000.\0009\000\040\000p\000o\000s\000M\000S\000e\000c\000\050\000\051\000\040\000c\000o\000n\000s\000t\000\040}{subsection.3.4.3}% 39
\BOOKMARK [3][-]{subsubsection.3.4.3.10}{\376\377\0003\000.\0004\000.\0003\000.\0001\0000\000\040\000p\000o\000s\000R\000e\000l\000a\000t\000i\000v\000e\000\050\000\051\000\040\000c\000o\000n\000s\000t\000\040}{subsection.3.4.3}% 40
\BOOKMARK [3][-]{subsubsection.3.4.3.11}{\376\377\0003\000.\0004\000.\0003\000.\0001\0001\000\040\000s\000e\000t\000P\000o\000s\000F\000r\000a\000m\000e\000s\000\050\000d\000o\000u\000b\000l\000e\000\040\000f\000r\000a\000m\000e\000,\000\040\000b\000o\000o\000l\000\040\000u\000p\000d\000a\000t\000e\000C\000u\000r\000r\000e\000n\000t\000F\000r\000a\000m\000e\000=\000t\000r\000u\000e\000\051}{subsection.3.4.3}% 41
\BOOKMARK [3][-]{subsubsection.3.4.3.12}{\376\377\0003\000.\0004\000.\0003\000.\0001\0002\000\040\000u\000p\000d\000a\000t\000e\000S\000l\000i\000d\000e\000r}{subsection.3.4.3}% 42
\BOOKMARK [0][-]{section*.17}{\376\377\000I\000n\000d\000e\000x}{}% 43
