\relax 
\providecommand\hyper@newdestlabel[2]{}
\providecommand\HyperFirstAtBeginDocument{\AtBeginDocument}
\HyperFirstAtBeginDocument{\ifx\hyper@anchor\@undefined
\global\let\oldcontentsline\contentsline
\gdef\contentsline#1#2#3#4{\oldcontentsline{#1}{#2}{#3}}
\global\let\oldnewlabel\newlabel
\gdef\newlabel#1#2{\newlabelxx{#1}#2}
\gdef\newlabelxx#1#2#3#4#5#6{\oldnewlabel{#1}{{#2}{#3}}}
\AtEndDocument{\ifx\hyper@anchor\@undefined
\let\contentsline\oldcontentsline
\let\newlabel\oldnewlabel
\fi}
\fi}
\global\let\hyper@last\relax 
\gdef\HyperFirstAtBeginDocument#1{#1}
\providecommand\HyField@AuxAddToFields[1]{}
\providecommand\HyField@AuxAddToCoFields[2]{}
\providecommand \oddpage@label [2]{}
\@writefile{toc}{\contentsline {chapter}{\numberline {1}Hierarchical Index}{1}{chapter.1}}
\@writefile{lof}{\addvspace {10\p@ }}
\@writefile{lot}{\addvspace {10\p@ }}
\@writefile{toc}{\contentsline {section}{\numberline {1.1}Class Hierarchy}{1}{section.1.1}}
\@writefile{toc}{\contentsline {chapter}{\numberline {2}Class Index}{3}{chapter.2}}
\@writefile{lof}{\addvspace {10\p@ }}
\@writefile{lot}{\addvspace {10\p@ }}
\@writefile{toc}{\contentsline {section}{\numberline {2.1}Class List}{3}{section.2.1}}
\@writefile{toc}{\contentsline {chapter}{\numberline {3}Class Documentation}{5}{chapter.3}}
\@writefile{lof}{\addvspace {10\p@ }}
\@writefile{lot}{\addvspace {10\p@ }}
\@writefile{toc}{\contentsline {section}{\numberline {3.1}Decode\discretionary {\unhbox \voidb@x \hbox {\relax \fontsize  {7}{8}\selectfont  $\leftarrow \joinrel  \rhook $}}{}{}Worker Class Reference}{5}{section.3.1}}
\newlabel{classDecodeWorker}{{3.1}{5}{Decode\+Worker Class Reference}{section.3.1}{}}
\newlabel{classDecodeWorker_a1f70e9b7ed81691577e5db962653bcc2}{{3.1}{5}{Signals}{section*.4}{}}
\newlabel{classDecodeWorker_a59558b70a06566371f5b21b0c173cdd5}{{3.1}{5}{Public Member Functions}{section*.5}{}}
\newlabel{classDecodeWorker_a2abfa502c10abf0af86a345ef459d2d2}{{3.1}{5}{Public Member Functions}{section*.5}{}}
\newlabel{classDecodeWorker_a1655a4700f7c4bbce116d51b43d00460}{{3.1}{5}{Public Member Functions}{section*.5}{}}
\newlabel{classDecodeWorker_a08837d85e00320eb7f1b6ca665183c9e}{{3.1}{5}{Public Member Functions}{section*.5}{}}
\newlabel{classDecodeWorker_aacd4b1b5e2e6535bcc89e4600666d357}{{3.1}{5}{Public Member Functions}{section*.5}{}}
\newlabel{classDecodeWorker_a859f0abdaf0e932e1b4349b496dce273}{{3.1}{5}{Public Member Functions}{section*.5}{}}
\newlabel{classDecodeWorker_a64fe44b112f634f847f0c68123680cd6}{{3.1}{5}{Public Member Functions}{section*.5}{}}
\@writefile{toc}{\contentsline {subsection}{\numberline {3.1.1}Member Function Documentation}{5}{subsection.3.1.1}}
\@writefile{toc}{\contentsline {subsubsection}{\numberline {3.1.1.1}decode}{5}{subsubsection.3.1.1.1}}
\newlabel{classDecodeWorker_a12b8b121cb1745f5a88e8f8df16eee87}{{3.1.1.1}{5}{\texorpdfstring {decode}{decode}}{subsubsection.3.1.1.1}{}}
\gdef \LT@i {\LT@entry 
    {3}{40.2135pt}\LT@entry 
    {3}{12.4pt}}
\gdef \LT@ii {\LT@entry 
    {3}{40.3035pt}\LT@entry 
    {3}{101.43513pt}}
\gdef \LT@iii {\LT@entry 
    {3}{35.71353pt}\LT@entry 
    {3}{12.4pt}}
\@writefile{toc}{\contentsline {subsubsection}{\numberline {3.1.1.2}open\discretionary {\unhbox \voidb@x \hbox {\relax \fontsize  {7}{8}\selectfont  $\leftarrow \joinrel  \rhook $}}{}{}Stream(\discretionary {\unhbox \voidb@x \hbox {\relax \fontsize  {7}{8}\selectfont  $\leftarrow \joinrel  \rhook $}}{}{}Q\discretionary {\unhbox \voidb@x \hbox {\relax \fontsize  {7}{8}\selectfont  $\leftarrow \joinrel  \rhook $}}{}{}String stream)}{6}{subsubsection.3.1.1.2}}
\newlabel{classDecodeWorker_a4bbc60cd77f71a0c52b06a56e4b84622}{{3.1.1.2}{6}{\texorpdfstring {open\+Stream(\+Q\+String stream)}{openStream(QString stream)}}{subsubsection.3.1.1.2}{}}
\@writefile{toc}{\contentsline {subsubsection}{\numberline {3.1.1.3}set\discretionary {\unhbox \voidb@x \hbox {\relax \fontsize  {7}{8}\selectfont  $\leftarrow \joinrel  \rhook $}}{}{}Pos\discretionary {\unhbox \voidb@x \hbox {\relax \fontsize  {7}{8}\selectfont  $\leftarrow \joinrel  \rhook $}}{}{}Frames(double frame)}{6}{subsubsection.3.1.1.3}}
\newlabel{classDecodeWorker_a485dae2b43c26af4832bccf8a2eaa3e4}{{3.1.1.3}{6}{\texorpdfstring {set\+Pos\+Frames(double frame)}{setPosFrames(double frame)}}{subsubsection.3.1.1.3}{}}
\@writefile{toc}{\contentsline {section}{\numberline {3.2}Main\discretionary {\unhbox \voidb@x \hbox {\relax \fontsize  {7}{8}\selectfont  $\leftarrow \joinrel  \rhook $}}{}{}Window Class Reference}{6}{section.3.2}}
\newlabel{classMainWindow}{{3.2}{6}{Main\+Window Class Reference}{section.3.2}{}}
\newlabel{classMainWindow_a97826b0f39a7c296aba75f34123f3c82}{{3.2}{6}{Signals}{section*.7}{}}
\newlabel{classMainWindow_a8b244be8b7b7db1b08de2a2acb9409db}{{3.2}{7}{Public Member Functions}{section*.8}{}}
\@writefile{toc}{\contentsline {section}{\numberline {3.3}Overlay Class Reference}{7}{section.3.3}}
\newlabel{classOverlay}{{3.3}{7}{Overlay Class Reference}{section.3.3}{}}
\gdef \LT@iv {\LT@entry 
    {3}{54.30722pt}\LT@entry 
    {3}{90.94142pt}}
\gdef \LT@v {\LT@entry 
    {3}{55.81013pt}\LT@entry 
    {3}{12.4pt}}
\@writefile{toc}{\contentsline {subsection}{\numberline {3.3.1}Detailed Description}{8}{subsection.3.3.1}}
\@writefile{toc}{\contentsline {subsection}{\numberline {3.3.2}Member Enumeration Documentation}{8}{subsection.3.3.2}}
\@writefile{toc}{\contentsline {subsubsection}{\numberline {3.3.2.1}Parser\discretionary {\unhbox \voidb@x \hbox {\relax \fontsize  {7}{8}\selectfont  $\leftarrow \joinrel  \rhook $}}{}{}Error}{8}{subsubsection.3.3.2.1}}
\newlabel{classOverlay_a9ef00f03a1372dc5bf0ae9b399c18193}{{3.3.2.1}{8}{\texorpdfstring {Parser\+Error}{ParserError}}{subsubsection.3.3.2.1}{}}
\newlabel{classOverlay_a9ef00f03a1372dc5bf0ae9b399c18193ae7066bd6638ef675ab94e1c083cb1bd0}{{3.3.2.1}{8}{\em No\+Error\hypertarget {classOverlay_a9ef00f03a1372dc5bf0ae9b399c18193ae7066bd6638ef675ab94e1c083cb1bd0}{}}{subsubsection.3.3.2.1}{}}
\newlabel{classOverlay_a9ef00f03a1372dc5bf0ae9b399c18193a1784694bdc240ab419e6178291eaa399}{{3.3.2.1}{8}{\em Open\+File\+Error\hypertarget {classOverlay_a9ef00f03a1372dc5bf0ae9b399c18193a1784694bdc240ab419e6178291eaa399}{}}{subsubsection.3.3.2.1}{}}
\newlabel{classOverlay_a9ef00f03a1372dc5bf0ae9b399c18193ac8a9b9e1f4ca414413b9e3e50146c848}{{3.3.2.1}{8}{\em Parse\+Error\hypertarget {classOverlay_a9ef00f03a1372dc5bf0ae9b399c18193ac8a9b9e1f4ca414413b9e3e50146c848}{}}{subsubsection.3.3.2.1}{}}
\@writefile{toc}{\contentsline {subsection}{\numberline {3.3.3}Member Function Documentation}{8}{subsection.3.3.3}}
\@writefile{toc}{\contentsline {subsubsection}{\numberline {3.3.3.1}frame(quint32 timestamp)}{8}{subsubsection.3.3.3.1}}
\newlabel{classOverlay_a39d037dcbfcdc8f2aaa39951bcd9acfc}{{3.3.3.1}{8}{\texorpdfstring {frame(quint32 timestamp)}{frame(quint32 timestamp)}}{subsubsection.3.3.3.1}{}}
\@writefile{toc}{\contentsline {subsubsection}{\numberline {3.3.3.2}next\discretionary {\unhbox \voidb@x \hbox {\relax \fontsize  {7}{8}\selectfont  $\leftarrow \joinrel  \rhook $}}{}{}Overlay(quint32 time\discretionary {\unhbox \voidb@x \hbox {\relax \fontsize  {7}{8}\selectfont  $\leftarrow \joinrel  \rhook $}}{}{}Stamp)}{8}{subsubsection.3.3.3.2}}
\newlabel{classOverlay_a921b608d3714021e122fde3d153f506a}{{3.3.3.2}{8}{\texorpdfstring {next\+Overlay(quint32 time\+Stamp)}{nextOverlay(quint32 timeStamp)}}{subsubsection.3.3.3.2}{}}
\@writefile{toc}{\contentsline {subsubsection}{\numberline {3.3.3.3}next\discretionary {\unhbox \voidb@x \hbox {\relax \fontsize  {7}{8}\selectfont  $\leftarrow \joinrel  \rhook $}}{}{}Overlay()}{8}{subsubsection.3.3.3.3}}
\newlabel{classOverlay_a08d7f62632a8b2e64a8bb0e9c2860cd3}{{3.3.3.3}{8}{\texorpdfstring {next\+Overlay()}{nextOverlay()}}{subsubsection.3.3.3.3}{}}
\gdef \LT@vi {\LT@entry 
    {3}{35.71353pt}\LT@entry 
    {3}{65.733pt}}
\gdef \LT@vii {\LT@entry 
    {3}{48.30446pt}\LT@entry 
    {3}{148.62079pt}}
\gdef \LT@viii {\LT@entry 
    {3}{48.30446pt}\LT@entry 
    {3}{148.62079pt}}
\@writefile{toc}{\contentsline {subsubsection}{\numberline {3.3.3.4}overlays\discretionary {\unhbox \voidb@x \hbox {\relax \fontsize  {7}{8}\selectfont  $\leftarrow \joinrel  \rhook $}}{}{}To\discretionary {\unhbox \voidb@x \hbox {\relax \fontsize  {7}{8}\selectfont  $\leftarrow \joinrel  \rhook $}}{}{}Frame(int frame)}{9}{subsubsection.3.3.3.4}}
\newlabel{classOverlay_a64f4cbdcaab04599465bc4381c134646}{{3.3.3.4}{9}{\texorpdfstring {overlays\+To\+Frame(int frame)}{overlaysToFrame(int frame)}}{subsubsection.3.3.3.4}{}}
\@writefile{toc}{\contentsline {subsubsection}{\numberline {3.3.3.5}parse\discretionary {\unhbox \voidb@x \hbox {\relax \fontsize  {7}{8}\selectfont  $\leftarrow \joinrel  \rhook $}}{}{}Frames(\discretionary {\unhbox \voidb@x \hbox {\relax \fontsize  {7}{8}\selectfont  $\leftarrow \joinrel  \rhook $}}{}{}Q\discretionary {\unhbox \voidb@x \hbox {\relax \fontsize  {7}{8}\selectfont  $\leftarrow \joinrel  \rhook $}}{}{}String file\discretionary {\unhbox \voidb@x \hbox {\relax \fontsize  {7}{8}\selectfont  $\leftarrow \joinrel  \rhook $}}{}{}Name)}{9}{subsubsection.3.3.3.5}}
\newlabel{classOverlay_ac7f1e54f1d27a7ad0c7991dd8afb88f4}{{3.3.3.5}{9}{\texorpdfstring {parse\+Frames(\+Q\+String file\+Name)}{parseFrames(QString fileName)}}{subsubsection.3.3.3.5}{}}
\@writefile{toc}{\contentsline {subsubsection}{\numberline {3.3.3.6}parse\discretionary {\unhbox \voidb@x \hbox {\relax \fontsize  {7}{8}\selectfont  $\leftarrow \joinrel  \rhook $}}{}{}Overlays(\discretionary {\unhbox \voidb@x \hbox {\relax \fontsize  {7}{8}\selectfont  $\leftarrow \joinrel  \rhook $}}{}{}Q\discretionary {\unhbox \voidb@x \hbox {\relax \fontsize  {7}{8}\selectfont  $\leftarrow \joinrel  \rhook $}}{}{}String file\discretionary {\unhbox \voidb@x \hbox {\relax \fontsize  {7}{8}\selectfont  $\leftarrow \joinrel  \rhook $}}{}{}Name)}{9}{subsubsection.3.3.3.6}}
\newlabel{classOverlay_add3d9864ecc33df3f599e163c11fcb6d}{{3.3.3.6}{9}{\texorpdfstring {parse\+Overlays(\+Q\+String file\+Name)}{parseOverlays(QString fileName)}}{subsubsection.3.3.3.6}{}}
\gdef \LT@ix {\LT@entry 
    {3}{55.81013pt}\LT@entry 
    {3}{12.4pt}}
\gdef \LT@x {\LT@entry 
    {3}{35.71353pt}\LT@entry 
    {3}{12.4pt}}
\@writefile{toc}{\contentsline {subsubsection}{\numberline {3.3.3.7}previous\discretionary {\unhbox \voidb@x \hbox {\relax \fontsize  {7}{8}\selectfont  $\leftarrow \joinrel  \rhook $}}{}{}Overlay(quint32 time\discretionary {\unhbox \voidb@x \hbox {\relax \fontsize  {7}{8}\selectfont  $\leftarrow \joinrel  \rhook $}}{}{}Stamp)}{10}{subsubsection.3.3.3.7}}
\newlabel{classOverlay_ae47a6d898295796503682a65ea31ae41}{{3.3.3.7}{10}{\texorpdfstring {previous\+Overlay(quint32 time\+Stamp)}{previousOverlay(quint32 timeStamp)}}{subsubsection.3.3.3.7}{}}
\@writefile{toc}{\contentsline {subsubsection}{\numberline {3.3.3.8}previous\discretionary {\unhbox \voidb@x \hbox {\relax \fontsize  {7}{8}\selectfont  $\leftarrow \joinrel  \rhook $}}{}{}Overlay()}{10}{subsubsection.3.3.3.8}}
\newlabel{classOverlay_abc4a1e11befa7b8f4cf639d7528c3e27}{{3.3.3.8}{10}{\texorpdfstring {previous\+Overlay()}{previousOverlay()}}{subsubsection.3.3.3.8}{}}
\@writefile{toc}{\contentsline {subsubsection}{\numberline {3.3.3.9}time\discretionary {\unhbox \voidb@x \hbox {\relax \fontsize  {7}{8}\selectfont  $\leftarrow \joinrel  \rhook $}}{}{}Stamp(int frame)}{10}{subsubsection.3.3.3.9}}
\newlabel{classOverlay_aba30f4cadbcfead2b1b44915617f0d32}{{3.3.3.9}{10}{\texorpdfstring {time\+Stamp(int frame)}{timeStamp(int frame)}}{subsubsection.3.3.3.9}{}}
\@writefile{toc}{\contentsline {section}{\numberline {3.4}Video\discretionary {\unhbox \voidb@x \hbox {\relax \fontsize  {7}{8}\selectfont  $\leftarrow \joinrel  \rhook $}}{}{}Handler Class Reference}{10}{section.3.4}}
\newlabel{classVideoHandler}{{3.4}{10}{Video\+Handler Class Reference}{section.3.4}{}}
\newlabel{classVideoHandler_a453238d48cf43f92da176366e0aace6f}{{3.4}{11}{Public Slots}{section*.14}{}}
\newlabel{classVideoHandler_a7e80d78cb9c2514a2b19c285ddcdd42d}{{3.4}{11}{Public Slots}{section*.14}{}}
\newlabel{classVideoHandler_af9c6426d96227ffd38c0b7db6aaf037d}{{3.4}{11}{Public Slots}{section*.14}{}}
\newlabel{classVideoHandler_aaa4f41896e565606552d960951145ca5}{{3.4}{11}{Public Slots}{section*.14}{}}
\newlabel{classVideoHandler_a0ea54798e44864231a65bc1e9c3b502e}{{3.4}{11}{Public Slots}{section*.14}{}}
\newlabel{classVideoHandler_a31fd29045a8a75b4daad184dd1ddb49e}{{3.4}{11}{Public Slots}{section*.14}{}}
\newlabel{classVideoHandler_a19f870ae02d495c88c5ed52eba0abc9e}{{3.4}{11}{Public Slots}{section*.14}{}}
\newlabel{classVideoHandler_ac3aa37f13e2901e830c0070bbb8aad27}{{3.4}{11}{Public Slots}{section*.14}{}}
\newlabel{classVideoHandler_a9740f6544f2695785ee84959719da200}{{3.4}{11}{Public Slots}{section*.14}{}}
\newlabel{classVideoHandler_a05c7976f85369df034128b99e13515cc}{{3.4}{11}{Public Slots}{section*.14}{}}
\newlabel{classVideoHandler_aa438c0abfdb8ddb54d06bf7ce68dc7bc}{{3.4}{11}{Public Slots}{section*.14}{}}
\newlabel{classVideoHandler_a2840450055e030beb1239a0fbe638831}{{3.4}{11}{Signals}{section*.15}{}}
\newlabel{classVideoHandler_ac25de5d277b6a3d8bf09df2f33df281d}{{3.4}{12}{Public Member Functions}{section*.16}{}}
\@writefile{toc}{\contentsline {subsection}{\numberline {3.4.1}Detailed Description}{12}{subsection.3.4.1}}
\@writefile{toc}{\contentsline {subsection}{\numberline {3.4.2}Member Enumeration Documentation}{12}{subsection.3.4.2}}
\@writefile{toc}{\contentsline {subsubsection}{\numberline {3.4.2.1}Play\discretionary {\unhbox \voidb@x \hbox {\relax \fontsize  {7}{8}\selectfont  $\leftarrow \joinrel  \rhook $}}{}{}State}{12}{subsubsection.3.4.2.1}}
\newlabel{classVideoHandler_a2b1835a79f75fd56eadac477d3652b91}{{3.4.2.1}{12}{\texorpdfstring {Play\+State}{PlayState}}{subsubsection.3.4.2.1}{}}
\newlabel{classVideoHandler_a2b1835a79f75fd56eadac477d3652b91af3af3ffc585a505666c8cea05cd79e79}{{3.4.2.1}{12}{\em pause\hypertarget {classVideoHandler_a2b1835a79f75fd56eadac477d3652b91af3af3ffc585a505666c8cea05cd79e79}{}}{subsubsection.3.4.2.1}{}}
\newlabel{classVideoHandler_a2b1835a79f75fd56eadac477d3652b91ab416e45692353a9612ae9c4653a3c464}{{3.4.2.1}{12}{\em play\+Video\hypertarget {classVideoHandler_a2b1835a79f75fd56eadac477d3652b91ab416e45692353a9612ae9c4653a3c464}{}}{subsubsection.3.4.2.1}{}}
\newlabel{classVideoHandler_a2b1835a79f75fd56eadac477d3652b91aec0968bcebd12fa5b5de3b6beeff9a4b}{{3.4.2.1}{12}{\em play\+Overlays\hypertarget {classVideoHandler_a2b1835a79f75fd56eadac477d3652b91aec0968bcebd12fa5b5de3b6beeff9a4b}{}}{subsubsection.3.4.2.1}{}}
\@writefile{toc}{\contentsline {subsection}{\numberline {3.4.3}Member Function Documentation}{12}{subsection.3.4.3}}
\@writefile{toc}{\contentsline {subsubsection}{\numberline {3.4.3.1}codec() const }{12}{subsubsection.3.4.3.1}}
\newlabel{classVideoHandler_a16bec3757877062d4c0b19de1b78f6a5}{{3.4.3.1}{12}{\texorpdfstring {codec() const }{codec() const }}{subsubsection.3.4.3.1}{}}
\@writefile{toc}{\contentsline {subsubsection}{\numberline {3.4.3.2}decode}{12}{subsubsection.3.4.3.2}}
\newlabel{classVideoHandler_ab7b0fb78bcfb33c5b7b33716a3f3e640}{{3.4.3.2}{12}{\texorpdfstring {decode}{decode}}{subsubsection.3.4.3.2}{}}
\gdef \LT@xi {\LT@entry 
    {3}{41.80653pt}\LT@entry 
    {3}{133.87936pt}}
\gdef \LT@xii {\LT@entry 
    {3}{37.30656pt}\LT@entry 
    {3}{12.4pt}}
\gdef \LT@xiii {\LT@entry 
    {3}{27.30777pt}\LT@entry 
    {1}{18.5794pt}}
\@writefile{toc}{\contentsline {subsubsection}{\numberline {3.4.3.3}frame\discretionary {\unhbox \voidb@x \hbox {\relax \fontsize  {7}{8}\selectfont  $\leftarrow \joinrel  \rhook $}}{}{}Count() const }{13}{subsubsection.3.4.3.3}}
\newlabel{classVideoHandler_a38df67408da0a1a51b4752355683ab08}{{3.4.3.3}{13}{\texorpdfstring {frame\+Count() const }{frameCount() const }}{subsubsection.3.4.3.3}{}}
\@writefile{toc}{\contentsline {subsubsection}{\numberline {3.4.3.4}framerate() const }{13}{subsubsection.3.4.3.4}}
\newlabel{classVideoHandler_a195088916a016f037c73dfcea55f1a46}{{3.4.3.4}{13}{\texorpdfstring {framerate() const }{framerate() const }}{subsubsection.3.4.3.4}{}}
\@writefile{toc}{\contentsline {subsubsection}{\numberline {3.4.3.5}image\discretionary {\unhbox \voidb@x \hbox {\relax \fontsize  {7}{8}\selectfont  $\leftarrow \joinrel  \rhook $}}{}{}Refresh}{13}{subsubsection.3.4.3.5}}
\newlabel{classVideoHandler_ad27bed625ae493aaaeae4e141062868f}{{3.4.3.5}{13}{\texorpdfstring {image\+Refresh}{imageRefresh}}{subsubsection.3.4.3.5}{}}
\@writefile{toc}{\contentsline {subsubsection}{\numberline {3.4.3.6}overlay\discretionary {\unhbox \voidb@x \hbox {\relax \fontsize  {7}{8}\selectfont  $\leftarrow \joinrel  \rhook $}}{}{}Refresh}{13}{subsubsection.3.4.3.6}}
\newlabel{classVideoHandler_afc0683e30a8dee583596e2beac972133}{{3.4.3.6}{13}{\texorpdfstring {overlay\+Refresh}{overlayRefresh}}{subsubsection.3.4.3.6}{}}
\@writefile{toc}{\contentsline {subsubsection}{\numberline {3.4.3.7}play\discretionary {\unhbox \voidb@x \hbox {\relax \fontsize  {7}{8}\selectfont  $\leftarrow \joinrel  \rhook $}}{}{}State() const }{13}{subsubsection.3.4.3.7}}
\newlabel{classVideoHandler_a24b5a2bbc255cd93dcfe9d9223bd04bb}{{3.4.3.7}{13}{\texorpdfstring {play\+State() const }{playState() const }}{subsubsection.3.4.3.7}{}}
\gdef \LT@xiv {\LT@entry 
    {3}{95.83244pt}\LT@entry 
    {3}{151.78017pt}}
\gdef \LT@xv {\LT@entry 
    {3}{59.81514pt}\LT@entry 
    {3}{93.84811pt}}
\@writefile{toc}{\contentsline {subsubsection}{\numberline {3.4.3.8}pos\discretionary {\unhbox \voidb@x \hbox {\relax \fontsize  {7}{8}\selectfont  $\leftarrow \joinrel  \rhook $}}{}{}Frames() const }{14}{subsubsection.3.4.3.8}}
\newlabel{classVideoHandler_a8bef55832d29ab40eb707f0b931e4658}{{3.4.3.8}{14}{\texorpdfstring {pos\+Frames() const }{posFrames() const }}{subsubsection.3.4.3.8}{}}
\@writefile{toc}{\contentsline {subsubsection}{\numberline {3.4.3.9}pos\discretionary {\unhbox \voidb@x \hbox {\relax \fontsize  {7}{8}\selectfont  $\leftarrow \joinrel  \rhook $}}{}{}M\discretionary {\unhbox \voidb@x \hbox {\relax \fontsize  {7}{8}\selectfont  $\leftarrow \joinrel  \rhook $}}{}{}Sec() const }{14}{subsubsection.3.4.3.9}}
\newlabel{classVideoHandler_acbe73f36a1f9c8e63486f40a3378bdbc}{{3.4.3.9}{14}{\texorpdfstring {pos\+M\+Sec() const }{posMSec() const }}{subsubsection.3.4.3.9}{}}
\@writefile{toc}{\contentsline {subsubsection}{\numberline {3.4.3.10}pos\discretionary {\unhbox \voidb@x \hbox {\relax \fontsize  {7}{8}\selectfont  $\leftarrow \joinrel  \rhook $}}{}{}Relative() const }{14}{subsubsection.3.4.3.10}}
\newlabel{classVideoHandler_af025d2ccbde21a6b4b7b47cda9336091}{{3.4.3.10}{14}{\texorpdfstring {pos\+Relative() const }{posRelative() const }}{subsubsection.3.4.3.10}{}}
\@writefile{toc}{\contentsline {subsubsection}{\numberline {3.4.3.11}set\discretionary {\unhbox \voidb@x \hbox {\relax \fontsize  {7}{8}\selectfont  $\leftarrow \joinrel  \rhook $}}{}{}Pos\discretionary {\unhbox \voidb@x \hbox {\relax \fontsize  {7}{8}\selectfont  $\leftarrow \joinrel  \rhook $}}{}{}Frames(double frame, bool update\discretionary {\unhbox \voidb@x \hbox {\relax \fontsize  {7}{8}\selectfont  $\leftarrow \joinrel  \rhook $}}{}{}Current\discretionary {\unhbox \voidb@x \hbox {\relax \fontsize  {7}{8}\selectfont  $\leftarrow \joinrel  \rhook $}}{}{}Frame=true)}{14}{subsubsection.3.4.3.11}}
\newlabel{classVideoHandler_a89ca1772249f84f62f8854670ed71024}{{3.4.3.11}{14}{\texorpdfstring {set\+Pos\+Frames(double frame, bool update\+Current\+Frame=true)}{setPosFrames(double frame, bool updateCurrentFrame=true)}}{subsubsection.3.4.3.11}{}}
\@writefile{toc}{\contentsline {subsubsection}{\numberline {3.4.3.12}update\discretionary {\unhbox \voidb@x \hbox {\relax \fontsize  {7}{8}\selectfont  $\leftarrow \joinrel  \rhook $}}{}{}Slider}{14}{subsubsection.3.4.3.12}}
\newlabel{classVideoHandler_abab55d876a0733246bb93b03d9bb4e6f}{{3.4.3.12}{14}{\texorpdfstring {update\+Slider}{updateSlider}}{subsubsection.3.4.3.12}{}}
\@writefile{toc}{\contentsline {chapter}{Index}{15}{section*.17}}
